Suite/Test/Step Name,Browser,Description,Start time,End time,Duration,Status
SUIT1,,,2019-04-21 15:46:30,2019-04-21 15:46:31,0.841s,PASSED
,,,,,,
Test Cases/TC1,,,2019-04-21 15:46:30,2019-04-21 15:46:31,0.321s,PASSED
"println(""TC1"")",,,2019-04-21 15:46:31,2019-04-21 15:46:31,0.000s,PASSED
,,,,,,
Test Cases/TC2,,,2019-04-21 15:46:31,2019-04-21 15:46:31,0.109s,PASSED
"println(""TC2"")",,,2019-04-21 15:46:31,2019-04-21 15:46:31,0.000s,PASSED
